"LightmappedGeneric"
{
	"$basetexture" "gargprof/graydoor"
	"$surfaceprop"  "metal"
	"$bumpmap" "metal/metalceiling005a_normal"
	"$envmap" "env_cubemap"
	"$normalmapalphaenvmapmask" 1
	"$envmapcontrast" 1
	"$envmapsaturation" 1
	"$detail" "detail\metal_detail_01"
	"$detailscale" "2"
	"$detailblendfactor" "0.5"
	"$detailblendmode" "0"
}
