"LightmappedGeneric"
{
	"$basetexture" "xen/xeno_7w3"
	"$bumpmap" "xen/xeno_7w3_n"
	"$surfaceprop" "mud"
	"$normalmapalphaenvmapmask" 1
	"$envmapcontrast" 1
	"$envmapsaturation" 1
	"$envmaptint" "[ 1 1 1 ]"
	"$envmap" "xen/xen_cubemap"
	"$basetexturetransform" "center 0 0 scale 8 8 rotate 0  translate 0 0"
}
