"LightmappedGeneric"
{
	"$basetexture" "models/props_xen/xeno_6w1"
	"$bumpmap" "models/props_xen/xeno_6w1_n"
	"$surfaceprop" "mud"
	"$normalmapalphaenvmapmask" 1
	"$envmapcontrast" 1
	"$envmapsaturation" 1
	"$envmaptint" "[ 1 1 1 ]"
	"$envmap" "xen/xen_cubemap"
	"$basetexturetransform" "center 0 0 scale 16 16 rotate 0  translate 0 0"
}
