"Vertexlitgeneric"
{
	"$baseTexture" "models\agrunt/ag_arm2"
	"$bumpmap" "models\agrunt/ag_arm2_normal"
	
	"$halflambert" "1"
	"$phong" "1"
	"$phongexponent" "10"
	"$phongalbedotint" "1"
	"$rimlight" "1"
	"$rimlightexponent" "10"
	"$rimlightboost" "1"
}
