VertexLitGeneric
{
	"$baseTexture" "models\nicolas_cage\XCRATE2E"
	"$bumpmap" "metal/metalceiling005a_normal"
	"$surfaceprop" "metal"
	"$phong" "1"
	"$phongboost" "2.5"
	"$halflambert" "1"
	"$phongexponenttexture" "gargprof/fancymetal_phong"
	"$phongalbedotint" "1"
	"$phongfresnelranges"	"[.1 .6 1.0]"
	"$detail" "detail\plaster_detail_01"
	"$detailscale" "2"
	"$detailblendfactor" "0.5"
	"$detailblendmode" "0"
}