"WorldVertexTransition"
{
	"$basetexture" "blend/desertfloor3_dry"
	"$basetexture2" "blend/desertfloor3_wet"
	"%tooltexture" "blend/desertfloor3_dry"
	"$basetexturetransform" "center .5 .5 scale 2 1 rotate 0  translate 0 0"
	"$basetexturetransform2" "center .5 .5 scale 8 4 rotate 0 translate 0 0"
	"%detailtype" "desert_grass"
	"%keywords" "desert"
	"$surfaceprop" "sand"
}
