"Vertexlitgeneric"
{
	"$baseTexture" "models\hgrunt/hgrunt_head_wt"
	
	"$halflambert" "1"
	
	"$bumpmap" "models\humans/skin_normal"
	//"$phong"     "1"
	
	"$phongexponent" "8"
	"$phongfresnelranges"   "[.25 .4 .5]"
	"$rimlight" "1"
	"$rimlightexponent" "8"
	"$rimlightboost" "1"
}
