"VertexLitGeneric"
{
	"$baseTexture" "models/hassassin/lens_chrome"
	"$bumpmap" "metal/metalceiling005a_normal"
	"$phong" "1"
	"$phongboost" "20"
	"$halflambert" "1"
	"$phongexponenttexture" "gargprof/fancymetal_phong"
	"$phongalbedotint" "1"								"$selfillum" "models/hassassin/lens_chrome"
	"$phongfresnelranges"	"[.1 .6 1.0]"
}
