"LightmappedGeneric"
{
	"$basetexture" "generic/GENERIC015K"
	"$surfaceprop"  "metal"
	"$bumpmap" "metal/metalceiling005a_normal"
	"$envmap" "env_cubemap"
	"$normalmapalphaenvmapmask" 1
	"$envmapcontrast" 1
	"$envmapsaturation" 1
	"$detail" "detail\metal_detail_01"
	"$detailscale" "2"
	"$detailblendfactor" "0.5"
	"$detailblendmode" "0"
	"$basetexturetransform" "center .5 .5 scale 0.25 1 rotate 0  translate 0 0"
}
