"VertexLitGeneric"
{
	"$surfaceprop" "default"
	"$basetexture" "Models/vortigaunt/vortigaunt_base"
	"$bumpmap" "Models/vortigaunt/vortigaunt_normal"
	"$phong" "1"
	"$phongboost" "0.1"
	"$phongexponenttexture" "Models/vortigaunt/vortigaunt_exponent"
	"$phongalbedotint" "1"
	"$phongfresnelranges" "[.18 .4 1]"
	"$halflambert" "1"

	// Rim lighting parameters
	"$rimlight" "1"												// To enable rim lighting (requires phong)
	"$rimlightexponent" "5"										// Exponent for phong component of rim lighting	
	"$rimlightboost" "0.5"										// Boost for ambient cube component of rim lighting
}
