"VertexLitGeneric"
{
	"$baseTexture" "models/tram/subway_ceiling"
	"$surfaceprop" "metal"
	$bumpmap "metal/metalceiling005a_normal"
	
	$detail "detail/metal_detail_01"
	$detailscale 2
	$detailblendfactor 0.5

	$phong 1
	$phongexponenttexture "gargprof/fancymetal_phong"
	$phongfresnelranges "[0.1 0.6 1]"
	$halflambert 1
	$phongalbedotint 1
	$phongboost 5
}
