"LightmappedGeneric"
{
	"$basetexture" "bm/CON1_BORD02"
	"$bumpmap" "tile/tilefloor001b_normal"
	"$normalmapalphaenvmapmask" 1
	"$envmap" "env_cubemap"
	"$surfaceprop" "tile"
	"$envmaptint" "[ .1 .1 .1 ]"
}
