"VertexLitGeneric"
{
	"$baseTexture" "models/props_chargers/recharge_off"
	"$bumpmap" "metal/metalceiling005a_normal"
	"$surfaceprop" "metal"
	"$phong" "1"
	"$phongboost" "10"
	"$halflambert" "1"
	"$phongexponenttexture" "gargprof/fancymetal_phong"
	"$phongalbedotint" "1"										
	"$phongfresnelranges"	"[.1 .6 1.0]"
	"$detail" "detail\metal_detail_01"
	"$detailscale" "0.25"
	"$detailblendfactor" "0.5"
	"$detailblendmode" "0"

	"$translucent" "1"
}
