VertexLitGeneric
{
	$basetexture "models/c1a3_securitymonitors/~SPOTBLUE"
	"$surfaceprop" "glass"
	"$phong" "1"
	"$phongboost" "20"
	"$phongexponenttexture" "gargprof/fancymetal_phong"
	"$phongalbedotint" "1"										
	"$phongfresnelranges"	"[.1 .6 1.0]"
	"$halflambert" "1"
	"$selfillum" 1
	"$selfillummask" "models/c1a3_securitymonitors/~SPOTBLUE"
}