"LightmappedGeneric"
{
	"$basetexture" "xen/xeno_7w1"
	"$bumpmap" "xen/xeno_7w1_n"
	"$surfaceprop" "mud"
	"$normalmapalphaenvmapmask" 1
	"$envmapcontrast" 1
	"$envmapsaturation" 1
	"$envmaptint" "[ 1 1 1 ]"
	"$envmap" "xen/xen_cubemap"
}
