"LightmappedGeneric"
{
	"$basetexture" "xen/xeno_4c1c"
	"$bumpmap" "xen/xeno_4c1c_n"
	"$surfaceprop" "mud"
	"$normalmapalphaenvmapmask" 1
	"$envmapcontrast" 1
	"$envmapsaturation" 1
	"$envmaptint" "[ 1 1 1 ]"
	"$envmap" "xen/xen_cubemap"
}
