"GameMenu"
{
	"1"
	{
		"label" "#GameUI_GameMenu_ResumeGame"
		"command" "ResumeGame"
		"OnlyInGame" "1"
	}
	"2"
	{
		"label" "#GameUI_GameMenu_Disconnect"
		"command" "Disconnect"
		"OnlyInGame" "1"
	}
	"3"
	{
		"label" "#GameUI_GameMenu_PlayerList"
		"command" "OpenPlayerListDialog"
		"OnlyInGame" "1"
	}
	"4"
	{
		"label" "#GameUI_TrainingRoom"
		"command" "engine map t0a0"
		"notmulti" "1"
	}
	"5"
	{
		"label" "#GameUI_GameMenu_NewGame"
		"command" "OpenNewGameDialog"
		"notmulti" "1"
	}
	"6"
	{
		"label" "#GameUI_GameMenu_LoadGame"
		"command" "OpenLoadGameDialog"
		"notmulti" "1"
	}
	"5"
	{
		"label" "#GameUI_GameMenu_FindServers"
		"command" "OpenServerBrowser"
	}
	"6"
	{
		"label" "#GameUI_GameMenu_CreateServer"
		"command" "OpenCreateMultiplayerGameDialog"
	}
	"7"
	{
		"label" "#GameUI_GameMenu_SaveGame"
		"command" "OpenSaveGameDialog"
		"notmulti" "1"
		"OnlyInGame" "1"
	}
	"7_5"
	{
		"label" "#GameUI_GameMenu_ActivateVR"
		"command" "engine vr_activate"
		"InGameOrder" "40"
		"OnlyWhenVREnabled" "1"
		"OnlyWhenVRInactive" "1"
	}
	"7_6"
	{
		"label" "#GameUI_GameMenu_DeactivateVR"
		"command" "engine vr_deactivate"
		"InGameOrder" "40"
		"OnlyWhenVREnabled" "1"
		"OnlyWhenVRActive" "1"
	}
	"12"
	{
		"label" "#GameUI_GameMenu_Options"
		"command" "OpenOptionsDialog"
	}
	"13"
	{
		"label" "#GameUI_GameMenu_Quit"
		"command" "Quit"
	}
}

