"Vertexlitgeneric"
{
	"$baseTexture" "models\hev_gordon/rubber_red"
	"$bumpmap" "models\hev_gordon/rubber_normal"
	"$phong"     "1"
	"$phongexponent"   "35"
	"$phongboost"   "20"
	"$phongfresnelranges"   "[.5 .8 1]"
	//rimlight parameters
	"$rimlight" "1"
	"$rimlightexponent" "8"
	"$rimlightboost" "1"
}
