"LightmappedGeneric"
{
	"$basetexture" "out\out_wall7D"
	"$surfaceprop" "concrete"
	"$bumpmap" "concrete\concretefloor028a_normal"
	"$detail" "detail\noise_detail_01"
	"$detailscale" "8"
	"$detailblendfactor" .6
	"$detailblendmode" 0
}
