"LightmappedGeneric"
{
	"$basetexturetransform" "center 0 0 scale 4 4 rotate 0  translate 0 0"
	

	// Original shader: BaseTimesLightmap
	"$detail" "detail/detail_noise1"
	"$detailscale" 2.5
	"$basetexture" "halflife/+2~elev1_pan"
	"$surfaceprop" "glass"
	"$selfillum" 1
}
