"LightmappedGeneric"
{
	// Original shader: BaseTimesLightmap
	"$detail" "detail/detail_noise1"
	"$detailscale" 2.5
	"$basetexture" "halflife/+aelev_up2"
	"$surfaceprop" "computer"
	"$selfillum" 1
	"Proxies"
	{
		"ToggleTexture"
		{
			"toggletexturevar" "$basetexture"
			"toggletextureframenumvar" "$frame"
		}
	}
	
	"$basetexturetransform" "center 0 0 scale 4 4 rotate 0  translate 0 0"
	"$bumpmap" "metal/metalceiling005a_normal"
}
