"LightmappedGeneric"
{
	"$basetexture" "halflife\c1a0_w1d4"
	"$surfaceprop" "concrete"
	"$basetexturetransform" "center 0 0 scale 4 4 rotate 0  translate 0 0"
	"$detail" "detail\noise_detail_01"
	"$detailscale" "7.345"
	"$detailblendfactor" .6
	"$detailblendmode" 0
	"$bumpmap" "concrete/concretewall041a_normal"
}
