"LightmappedGeneric"
{
	"$basetexture" "hssf\C1A3FLOOR02"
	"$basetexturetransform" "center 0 0 scale 4 4 rotate 0  translate 0 0"
	"$bumpmap" "concrete/concretewall041a_normal"
	"$surfaceprop" "concrete"
    "$detail" "detail\noise_detail_01"
	"$detailscale" "7.345"
	"$detailblendfactor" .6
	"$detailblendmode" 0
}
