"WorldVertexTransition"
{
	"$basetexture" "blend/desertfloor1_dry"
	"$basetexture2" "blend/desertfloor1_wet"
	"%tooltexture" "blend/desertfloor1_dry"
	"$basetexturetransform" "center 0 0 scale 4 4 rotate 0  translate 0 0"
	"$basetexturetransform2" "center .5 .5 scale 4 4 rotate 0 translate 0 0"
	"%detailtype" "desert_grass"
	"%keywords" "desert"
	"$surfaceprop" "sand"
}
