"LightmappedGeneric"
{
	"$basetexture" "fifties/FIFTIES_CMP2B"
	"$basetexturetransform" "center 0 0 scale 4 4 rotate 0  translate 0 0"
	"$surfaceprop"  "metal"
	"$bumpmap" "metal/metalceiling005a_normal"
	"$phongfresnelranges"	"[.1 .6 1.0]"
	"$detail" "detail\metal_detail_01"
	"$detailscale" "0.125"
	"$detailblendfactor" "1"
	"$detailblendmode" "0"
}
