"Refract"
{
 	"$model" 1
	"$basetexturetransform" "center 0 0 scale 12 12 rotate 0  translate 0 0"
	"$refractamount" ".025"
 	"$bluramount" "0.1"
	"$REFRACTTINT" "{222 232 230}"
	"$scale" "[1 1]"
	"$dudvmap" "glass/glasswindowbreak070a_normal"
	"$normalmap" "glass/glasswindowbreak070a_normal"
	"$nocull" 1
	"$surfaceprop" "glass"
	"$envmap" "env_cubemap"
	"$envmapcontrast" "1"
	"$envmapsaturation" "[1 1 1]"
	"$envmaptint" "[.71 .79 .85]"
	"$envmapmask" "glass/glasswindowbreak070a_mask"

	"$crackmaterial" "glass/glasswindowbreak070b"
}
