"LightmappedGeneric"
{
	"$basetexture" "out\OUT_PAVE"
	"$basetexturetransform" "center 0 0 scale 4 4 rotate 0  translate 0 0"
	"$surfaceprop"  "concrete"
	"$bumpmap" "concrete/concretefloor005a_normal"
	"$detail" "detail\rock_detail_01"
	"$detailscale" "1"
	"$detailblendfactor" "0.25"
	"$detailblendmode" "0"
}
