"LightmappedGeneric"
{
	"$basetexture" "halflife/subway_seat2"
	"$basetexturetransform" "center 0 0 scale 4 4 rotate 0  translate 0 0"
	"$surfaceprop"  "metal"
	"$bumpmap" "metal/metalceiling005a_normal"
	"$detail" "detail\metal_detail_01"
	"$detailscale" "2"
	"$detailblendfactor" "0.5"
	"$detailblendmode" "0"
}
