"LightmappedGeneric"
{
	"$basetexture" "halflife/tnnl_c1"
	"$bumpmap" "concrete/concretewall041a_normal"
	"$surfaceprop" "concrete"
	"$basetexturetransform" "center 0 0 scale 4 4 rotate 0 translate 0 0"
    "$detail" "detail\noise_detail_01"
	"$detailscale" "7.345"
	"$detailblendfactor" .6
	"$detailblendmode" 0
}
