"Resource/HudLayout.res"
{
	HudHealth
	{
		"fieldName"		"HudHealth"
		"xpos"	"0"
		"ypos"	"430"
		"wide"	"150"
		"tall"  "50"
		"visible" "1"
		"enabled" "1"
	}
	
	HudSuit
	{
		"fieldName"		"HudSuit"
		"xpos"	"0"
		"ypos"	"430"
		"wide"	"640"
		"tall"  "50"
		"visible" "1"
		"enabled" "1"
	}

	HudAmmo
	{
		"fieldName" "HudAmmo"
		"visible" "1"
		"enabled" "1"
		"xpos"	"r640"
		"tall"	 "480"
		"wide"	"640"
	}

	HudAmmoSecondary
	{
		"fieldName" "HudAmmoSecondary"
		"visible" "1"
		"enabled" "1"
		"wide"	 "640"
		"tall"	 "480"
	}
	
	HudFlashlight
	{
		"fieldName" "HudFlashlight"
		"visible" "1"
		"xpos"	"r640"
		"tall"  "480"
		"wide"	"640"
	}
	
	HudDamageIndicator
	{
		"fieldName" "HudDamageIndicator"
		"visible" "1"
		"enabled" "1"
		"wide"	 "640"
		"tall"	 "480"
	}

	HudDamageTiles
	{
		"fieldName" "HudDamageIndicator"
		"visible" "1"
		"enabled" "1"
		"wide"	 "640"
		"tall"	 "480"
	}

	HudWeaponSelection
	{
		"fieldName" "HudWeaponSelection"
		"visible" "1"
		"enabled" "1"
		"wide"	 "640"
		"tall"	 "480"
	}

	HudCrosshair
	{
		"fieldName" "HudCrosshair"
		"visible" "1"
		"enabled" "1"
		"wide"	 "640"
		"tall"	 "480"
	}

	HudDeathNotice
	{
		"fieldName" "HudDeathNotice"
		"visible" "1"
		"enabled" "1"
		"wide"	 "640"
		"tall"	 "480"
	}

	HudVehicle
	{
		"fieldName" "HudVehicle"
		"visible" "1"
		"enabled" "1"
		"wide"	 "640"
		"tall"	 "480"
	}

	CVProfPanel
	{
		"fieldName" "CVProfPanel"
		"visible" "1"
		"enabled" "1"
		"wide"	 "640"
		"tall"	 "480"
	}

	ScorePanel
	{
		"fieldName" "ScorePanel"
		"visible" "1"
		"enabled" "1"
		"wide"	 "640"
		"tall"	 "480"
	}

	HudTrain
	{
		"fieldName" "HudTrain"
		"visible" "1"
		"enabled" "1"
		"wide"	 "640"
		"tall"	 "480"
	}

	HudMOTD
	{
		"fieldName" "HudMOTD"
		"visible" "1"
		"enabled" "1"
		"wide"	 "640"
		"tall"	 "480"
	}

	HudMessage
	{
		"fieldName" "HudMessage"
		"visible" "1"
		"enabled" "1"
		"wide"	 "640"
		"tall"	 "480"
	}

	HudMenu
	{
		"fieldName" "HudMenu"
		"visible" "1"
		"enabled" "1"
		"wide"	 "640"
		"tall"	 "480"
	}

	HudCloseCaption
    {
        "fieldName" "HudCloseCaption"
        "visible"    "1"
        "enabled"    "1"
        "xpos"        "c-250"
        "ypos"        "276"
        "wide"        "500"
        "tall"        "136"

        "BgAlpha"    "128"

        "GrowTime"        "0.25"
        "ItemHiddenTime"    "0.2"  // Nearly same as grow time so that the item doesn't start to show until growth is finished
        "ItemFadeInTime"    "0.15"    // Once ItemHiddenTime is finished, takes this much longer to fade in
        "ItemFadeOutTime"    "0.3"

    }

	HudChat
	{
		"fieldName" "HudChat"
		"visible" "1"
		"enabled" "1"
		"xpos"	"10"
		"ypos"	"280"
		"wide"	 "400"
		"tall"	 "100"
	}

	HudHistoryResource
	{
		"fieldName" "HudHistoryResource"
		"visible" "1"
		"enabled" "1"
		"xpos"   "r640"
		"wide"	 "640"
		"tall"	 "400"
	}

	HudGeiger
	{
		"fieldName" "HudGeiger"
		"visible" "1"
		"enabled" "1"
		"wide"	 "640"
		"tall"	 "480"
	}

	HudWeapon
	{
		"fieldName" "HudWeapon"
		"visible" "1"
		"enabled" "1"
		"wide"	 "640"
		"tall"	 "480"
	}

	HudAnimationInfo
	{
		"fieldName" "HudAnimationInfo"
		"visible" "1"
		"enabled" "1"
		"wide"	 "640"
		"tall"	 "480"
	}

	CBudgetPanel
	{
		"fieldName" "CBudgetPanel"
		"visible" "1"
		"enabled" "1"
		"wide"	 "640"
		"tall"	 "480"
	}

	CTextureBudgetPanel
	{
		"fieldName" "CTextureBudgetPanel"
		"visible" "1"
		"enabled" "1"
		"wide"	 "640"
		"tall"	 "480"
	}

	HudPredictionDump
	{
		"fieldName" "HudPredictionDump"
		"visible" "1"
		"enabled" "1"
		"wide"	 "640"
		"tall"	 "480"
	}

	HudHintDisplay
	{
		"fieldName"	"HudHintDisplay"
		"visible"	"0"
		"enabled" "1"
		"xpos"	"r120"
		"ypos"	"r340"
		"wide"	"100"
		"tall"	"200"
		"text_xpos"	"8"
		"text_ypos"	"8"
		"text_xgap"	"8"
		"text_ygap"	"8"
		"TextColor"	"255 170 0 220"

		"PaintBackgroundType"	"2"
	}
}