"Vertexlitgeneric"
{
	"$baseTexture" "models\bullsquid/bodytop"
	"$bumpmap" "models\bullsquid/skin_normal"
	"$phong"     "1"
	"$phongexponent"   "35"
	"$phongboost"   "2"
	"$phongfresnelranges"   "[.5 .8 1]"
	"$rimlight" "1"
	"$rimlightexponent" "8"
	"$rimlightboost" "2"									// Boost for ambient cube component of rim lighting
}
