"LightmappedGeneric"
{
	"$basetexture" "hssf\C1A3_W1E"
	"$surfaceprop" "concrete"
	"$envmap" "env_cubemap"
	"$bumpmap" "concrete\concretefloor028a_normal"
	"$normalmapalphaenvmapmask" 1
	"$envmapsaturation" 1
	"$envmapcontrast" 1
	"$envmaptint" "[ .45 .45 .45 ]"

	"LightmappedGeneric_DX8"
	{
		"$envmaptint" "[ .35 .35 .35 ]"
	}
	"lightmappedgeneric_HDR_dx9"
	{
		"$envmaptint" "[.12 .12 .12]"
	}
	"lightmappedgeneric_dx9"
	{
		"$envmaptint" "[.12 .12 .12]"
	}
}
