"LightmappedGeneric"
{
	"$basetexture" "hssf/C1A3VENTDR01"
	"$surfaceprop"  "metal"
	"$bumpmap" "metal/metalceiling005a_normal"
	"$envmap" "env_cubemap"
	"$normalmapalphaenvmapmask" 1
	"$envmapcontrast" 1
	"$envmapsaturation" 1								"%keywords" "ventdoor"
	"$phongfresnelranges"	"[.1 .6 1.0]"
	"$detail" "detail\metal_detail_01"
	"$detailscale" "0.125"
	"$detailblendfactor" "1"
	"$detailblendmode" "0"
}
