"VertexLitGeneric"
{
	"$baseTexture" "models/v_hkmp5-sd/mp5sd"
	"$bumpmap" "metal/metalceiling005a_normal"
	
	"$normalmapalphaenvmapmask" 1
	
	
	"$surfaceprop" "metal"
	"$phong" "1"
	"$phongboost" "5"
	"$halflambert" "1"
	"$phongexponenttexture" "gargprof/fancymetal_phong"
	"$phongalbedotint" "1"										
	"$phongfresnelranges"	"[.1 .6 1.0]"
	"$detail" "detail\metal_detail_01"
	"$detailscale" "2"
	"$detailblendfactor" "0.5"
	"$detailblendmode" "0"
}
